An Introduction to Quantitative Text Analysis for Linguistics - 10 Infer
…
Example 10.3  

# Load datasets
dative_tbl <-
  read_csv("../data/dative_ida.csv")

In preparation for statistical analysis, I performed a statistical overview and diagnostics of the dataset. This included checking for missing data, outliers, and anomalies. I also checked the distribution of the variables using descriptive statistics and visualizations, noting that the rcp_len and thm_len variables are right-skewed. This is something to keep in mind. The results of this overview and diagnostics are not shown here, but they are important steps in the IDA workflow. In this process, I converted the character variables to factors as most statistical tests require factors. A preview of the dataset is shown in Example 10.4.

Example 10.4  

# Preview of the dataset
dative_tbl

# A tibble: 3,263 × 4
   rcp_real modality rcp_len thm_len
   <fct>    <fct>      <dbl>   <dbl>
 1 NP       written        1      14
 2 NP       written        2       3
 3 NP       written        1      13
 4 NP       written        1       5
 5 NP       written        2       3
 6 NP       written        2       4
 7 NP       written        2       4
 8 NP       written        1       1
 9 NP       written        1      11
10 NP       written        1       2
# ℹ 3,253 more rows
…
Example 10.6  

# Specify the variable of interest
dative_spec <-
  dative_tbl |>
  specify(
    response = rcp_real,
    success = "NP"
  )

# Preview
dative_spec

Response: rcp_real (factor)
# A tibble: 3,263 × 1
   rcp_real
   <fct>   
 1 NP      
 2 NP      
 3 NP      
 4 NP      
 5 NP      
 6 NP      
 7 NP      
 8 NP      
 9 NP      
10 NP      
# ℹ 3,253 more rows
…
Example 10.8  

# Generate the null hypothesis distribution
dative_null <-
  dative_spec |>
  hypothesize(null = "point", p = 0.5) |>
  generate(reps = 1000, type = "draw") |>
  calculate(stat = "prop")

# Preview
dative_null

Response: rcp_real (factor)
Null Hypothesis: point
# A tibble: 1,000 × 2
   replicate  stat
       <int> <dbl>
 1         1 0.510
 2         2 0.504
 3         3 0.502
 4         4 0.490
 5         5 0.495
 6         6 0.510
 7         7 0.504
 8         8 0.505
 9         9 0.496
10        10 0.517
# ℹ 990 more rows
…
# Specify the relationship between the response and explanatory variables
dative_spec <-
  dative_tbl |>
  specify(
    rcp_real ~ modality,
    success = "NP"
  )

# Preview
dative_spec

Response: rcp_real (factor)
Explanatory: modality (factor)
# A tibble: 3,263 × 2
   rcp_real modality
   <fct>    <fct>   
 1 NP       written 
 2 NP       written 
 3 NP       written 
 4 NP       written 
 5 NP       written 
 6 NP       written 
 7 NP       written 
 8 NP       written 
 9 NP       written 
10 NP       written 
# ℹ 3,253 more rows
…
We see the dataset has seven variables. The fillers_orf will be used as our reponse variable and corresponds to the rate of filler usage per speaker, normalized by the number of utterances. The other variables we will consider as explanatory variables are age, sex, and education, providing us a mix of numeric and categorical variables.

The context for these analysis demonstrations comes from the socio-linguistic literature on the use of filled pauses. Filled pauses have often been associated with a type of disfluency; speech errors that occur during speech production. However, some authors have argued that filled pauses can act as sociolinguistic markers of socio-demographic characterstics of speakers, such as gender, age, and educational level (Shriberg, 1994; Tottie, 2011).

Reading the dataset and performing some basic diagnostics, a preview of the fillers_tbl dataset is seen in Example 10.27 .

Example 10.27  

# Preview the dataset
fillers_tbl

# A tibble: 441 × 4
     age sex    education         fillers_orf
   <dbl> <fct>  <ord>                   <dbl>
 1    38 Female Less Than College        2.14
 2    52 Male   More Than College       25.3 
 3    29 Female College                  4.13
 4    34 Female College                  2.41
 5    36 Female College                  3.79
 6    27 Female College                  0   
 7    53 Female Less Than College        8.33
 8    60 Male   Less Than College        1.82
 9    28 Female College                  5.22
10    35 Female College                  6.23
# ℹ 431 more rows
…
In R, we can use the jitter() function to add a small amount of random noise to the variable. Note, however, this random noise can be positive or negative. When a negative value is added to a zero value, we are still in trouble when we go to log-transform. So we need to make sure that none of the jitter produces negative values. We can do this by simply taking the absolute value of the jittered variable with the abs() function. Let’s see how this works in Example 10.31.

Example 10.31  

# Set seed for reproducibility
set.seed(1234)

# Add jitter to fillers
fillers_tbl <-
  fillers_tbl |>
  mutate(fillers_orf_jitter = abs(jitter(fillers_orf)))

fillers_tbl

# A tibble: 441 × 5
     age sex    education         fillers_orf fillers_orf_jitter
   <dbl> <fct>  <ord>                   <dbl>              <dbl>
 1    38 Female Less Than College        2.14           2.14    
 2    52 Male   More Than College       25.3           25.3     
 3    29 Female College                  4.13           4.13    
 4    34 Female College                  2.41           2.41    
 5    36 Female College                  3.79           3.80    
 6    27 Female College                  0              0.000561
 7    53 Female Less Than College        8.33           8.33    
 8    60 Male   Less Than College        1.82           1.82    
 9    28 Female College                  5.22           5.22    
10    35 Female College                  6.23           6.23    
# ℹ 431 more rows

The results from Example 10.31 show that the fillers_orf_jitter variable has been added to the fillers_tbl dataset and that zero values for fillers_orf now have a small amount of random noise added to them. Note, that the other values also have a small amount of random noise added to them, but it is so small that rounding to 2 decimal places makes it look like nothing has changed.

Now let’s return to log transforming the fillers_orf_jitter variable. We can do this with the log() function. Let’s see how this works in Example 10.32.

Example 10.32  

# Log transform fillers (with jitter)
fillers_tbl <-
  fillers_tbl |>
  mutate(fillers_orf_log = log(fillers_orf_jitter))

fillers_tbl

# A tibble: 441 × 6
     age sex    education         fillers_orf fillers_orf_jitter fillers_orf_log
   <dbl> <fct>  <ord>                   <dbl>              <dbl>           <dbl>
 1    38 Female Less Than College        2.14           2.14               0.762
 2    52 Male   More Than College       25.3           25.3                3.23 
 3    29 Female College                  4.13           4.13               1.42 
 4    34 Female College                  2.41           2.41               0.880
 5    36 Female College                  3.79           3.80               1.33 
 6    27 Female College                  0              0.000561          -7.49 
 7    53 Female Less Than College        8.33           8.33               2.12 
 8    60 Male   Less Than College        1.82           1.82               0.597
 9    28 Female College                  5.22           5.22               1.65 
10    35 Female College                  6.23           6.23               1.83 
# ℹ 431 more rows
…
So how do we interpret this? Remember, the \(p\)-value is the probability of observing a statistic as extreme or more extreme than the observed statistic, given that the null hypothesis is true. The confidence interval is the range of values that we are 95% confident contains the true population parameter. We should take into consideration two aspects: (1) the confidence interval has a large range (the interval is wide) and (2) that the lower limit is near 0. Take together and in addition to the \(p\)-value, we can conclude that the observed difference is not statistically significant, and if there is a difference, it is likely to be small or negligible.

Multivariate analysis

While bivariate analysis is useful for exploring the relationship between two variables, it is often the case that we want to consider relationships between more than two variables. In this case, we can use multivariate analysis. Linear regression is a common multivariate analysis technique.

In linear regression, we are interested in predicting the value of a numeric response variable based on the values of the explanatory variables. The contribution of the explanatory variables can be considered individually, as an interaction, or as a combination of both.

Let’s now introduce a variation of the SWDA dataset which includes a variable filler_type which has two levels, ‘uh’ and ‘um’, corresponding to the use of each filler. Here’s a preview of the dataset in Example 10.40.

Example 10.40  

fillers_type_df

# A tibble: 882 × 6
   speaker_id sex    education           age filler_type fillers_orf_log
        <dbl> <fct>  <ord>             <dbl> <chr>                 <dbl>
 1       1000 Female Less Than College    38 uh                    0.561
 2       1000 Female Less Than College    38 um                   -0.941
 3       1001 Male   More Than College    52 uh                    3.22 
 4       1001 Male   More Than College    52 um                   -1.64 
 5       1002 Female College              29 uh                    0.956
 6       1002 Female College              29 um                    0.425
 7       1004 Female College              34 uh                    0.474
 8       1004 Female College              34 um                   -0.220
 9       1005 Female College              36 uh                    1.17 
10       1005 Female College              36 um                   -0.582
# ℹ 872 more rows
…
