8 Explore – An Introduction to Quantitative Text Analysis for Linguistics
…
Raw frequency

Let’s consider what the most common words in the MASC dataset are as a starting point to making inroads on our task by identifying relevant vocabulary for an ELL textbook.

In the masc_tbl data frame we have the linguistic unit term which corresponds to the word-level annotation of the MASC. The lemma corresponds to the base form of each term, for words with inflectional morphology, the lemma is the word sans the inflection (e.g. is/be, are/be). For other words, the term and the lemma will be the same (e.g. the/the, in/in). These two variables pose a choice point for us: do we consider words to be the actual forms or the base forms? There is an argument to be made for both. In this case, I will operationalize our linguistic unit as the lemma variable, as this will allow us to group words with distinct inflectional morphology together.

To perform a basic word frequency analysis, we can apply summarize() in combination with n() or the convenient count() function from {dplyr}. Our sorted lemma counts appear in Example 8.2.

Example 8.2  

# Lemma count, sorted in descending order
masc_tbl |>
  count(lemma, sort = TRUE)

# A tibble: 25,923 × 2
   lemma     n
   <chr> <int>
 1 the   26137
 2 be    19466
 3 to    13548
 4 and   12528
 5 of    12005
 6 a     10461
 7 in     8374
 8 i      7783
 9 that   7082
10 you    5276
# ℹ 25,913 more rows
…
