An Introduction to Quantitative Text Analysis for Linguistics - 6 Curate
…
Continuing on, let’s look for redundant variables. We see that the variables filename and path have the same number unique values. And if we combine this with the visual summary in Example 6.16, we can see that the path variable is redundant. We will remove this variable from the dataset.

Another potentially redundant set of variables are who and name –both of which are speaker identifiers. The who variable is a unique identifier, but there may be some redundancy with the name variable, that is there may be two speakers with the same name. We can check this by looking at the number of unique values in the who and name variables from the skim() output in Example 6.17. who has 568 unique values and name has 269 unique values. This suggests that there are multiple speakers with the same name.

Another way to explore this is to look at the number of unique values in the who variable for each unique value in the name variable. We can do this using the group_by() and summarize() functions from the dplyr package. For each value of name, we will count the number of unique values in who and then sort the results in descending order.

Example 6.18  

cabnc_participants |>
  group_by(name) |>
  summarize(n = unique(who) |> length()) |>
  arrange(desc(n))

> # A tibble: 269 × 2
>    name                          n
>    <chr>                     <int>
>  1 None                         59
>  2 Unknown_speaker              59
>  3 Group_of_unknown_speakers    21
>  4 Chris                         9
>  5 David                         9
>  6 Margaret                      8
>  7 Ann                           7
>  8 John                          7
>  9 Alan                          6
> 10 Jackie                        5
> # ℹ 259 more rows
…
