An Introduction to Quantitative Text Analysis for Linguistics - 8 Exploration
…
Along the way, we will introduce some fundamental concepts in text analysis such as tokens and types, raw and relative frequency, and dispersion. In addition, we will apply various descriptive analysis techniques and visualizations to explore the dataset and identify new questions and new variables of interest.

Frequency analysis

At its core, frequency analysis is a descriptive method that counts the number of times a linguistic unit (i.e. word, n-gram, sentence, etc.) occurs in a dataset. The results of frequency analysis can be used to describe the dataset and to identify units that are linguistically distinctive or distinctive to a particular group or sub-group in the dataset.

In the masc_tbl data frame we have the linguistic unit token which corresponds to the word-level annotation of the MASC. To perform a basic frequency analysis, we start by using the count() function from the dplyr package to count the number of times each token occurs in the dataset. We’ll sort and list the top word tokens, as seen in Example 8.2.

Example 8.2  

# Token count, sorted
masc_tbl |> 
  count(token, sort = TRUE)

> # A tibble: 39,475 × 2
>    token     n
>    <chr> <int>
>  1 ,     27113
>  2 .     26257
>  3 the   23373
>  4 to    12998
>  5 of    11865
>  6 and   11464
>  7 a      9779
>  8 in     7632
>  9 I      7354
> 10 that   6596
> # ℹ 39,465 more rows
…
There is something else we should notice. As we can see among the most frequent tokens are non-words such as ,, and .. As you can imagine, given the conventions of written and transcriptional language, these tokens are very frequent. For a frequency analysis of word tokens, however, we probably should remove them. In the masc_tbl data frame, the pos variable has a value of PUNCT (e.g. ,, .) or SYM (e.g. $, #) for punctuation and symbols, respectively. We can use this information to remove tokens that are tagged with either of these values. We can do this by filtering the data frame to only include tokens that are not tagged with PUNCT or SYM, as seen in Example 8.3.

Example 8.3  

# Filter out tokens with PUNCT or SYM for pos
masc_tbl <- 
  masc_tbl |> 
  filter(pos != "PUNCT" & pos != "SYM")

# Token count, sorted (again)
masc_tbl |> 
  count(token, sort = TRUE)

> # A tibble: 39,343 × 2
>    token     n
>    <chr> <int>
>  1 the   23373
>  2 to    12998
>  3 of    11865
>  4 and   11464
>  5 a      9762
>  6 in     7632
>  7 I      7354
>  8 that   6596
>  9 is     5230
> 10 you    4552
> # ℹ 39,333 more rows
…
