An Introduction to Quantitative Text Analysis for Linguistics - 10 Inference
…
Example 10.3  

# Specify the variable of interest
dative_spec <- 
  dative_df |> 
  specify(
    response = realization_of_rcp,
    success = "NP"
  )

dative_spec

> Response: realization_of_rcp (factor)
> # A tibble: 3,263 × 1
>    realization_of_rcp
>    <fct>             
>  1 NP                
>  2 NP                
>  3 NP                
>  4 NP                
>  5 NP                
>  6 NP                
>  7 NP                
>  8 NP                
>  9 NP                
> 10 NP                
> # ℹ 3,253 more rows
…
Example 10.5  

# Generate the null hypothesis distribution
dative_null <-
  dative_spec |> 
  hypothesize(null = "point", p = 0.5) |>
  generate(reps = 1000, type = "draw") |>
  calculate(stat = "prop")

dative_null

> Response: realization_of_rcp (factor)
> Null Hypothesis: point
> # A tibble: 1,000 × 2
>    replicate  stat
>        <int> <dbl>
>  1         1 0.490
>  2         2 0.486
>  3         3 0.506
>  4         4 0.492
>  5         5 0.496
>  6         6 0.489
>  7         7 0.510
>  8         8 0.513
>  9         9 0.494
> 10        10 0.498
> # ℹ 990 more rows
…
Example 10.16  

# Specify the relationship between the response and explanatory variables
dative_spec <- 
  dative_df |> 
  specify(
    realization_of_rcp ~ modality,
    success = "NP"
  )

dative_spec

> Response: realization_of_rcp (factor)
> Explanatory: modality (factor)
> # A tibble: 3,263 × 2
>    realization_of_rcp modality
>    <fct>              <fct>   
>  1 NP                 written 
>  2 NP                 written 
>  3 NP                 written 
>  4 NP                 written 
>  5 NP                 written 
>  6 NP                 written 
>  7 NP                 written 
>  8 NP                 written 
>  9 NP                 written 
> 10 NP                 written 
> # ℹ 3,253 more rows
…
Example 10.27  

# Specify the relationship between the response and explanatory variables
dative_inter_spec <- 
  dative_df |> 
  specify(
    realization_of_rcp ~ modality * length_ratio_log
  )

dative_inter_spec

> Response: realization_of_rcp (factor)
> Explanatory: modality (factor), length_ratio_log (numeric)
> # A tibble: 3,263 × 3
>    realization_of_rcp modality length_ratio_log
>    <fct>              <fct>               <dbl>
>  1 NP                 written             1.15 
>  2 NP                 written             0.176
>  3 NP                 written             1.11 
>  4 NP                 written             0.699
>  5 NP                 written             0.176
>  6 NP                 written             0.301
>  7 NP                 written             0.301
>  8 NP                 written             0    
>  9 NP                 written             1.04 
> 10 NP                 written             0.301
> # ℹ 3,253 more rows
…
