An Introduction to Quantitative Text Analysis for Linguistics - 9 Predict
…
Figure 9.5: Confusion matrix for the test set.

On the test set the false instances look similar to the distribution on the training set, with the exception that learners are more likely to be falsely predicted to be natives than the other way around.

We can inspect the errors on the test set by filtering the data frame to only include the false instances. I will then select the columns with the actual outcome, the predicted outcome, the proficiency level, and the text and separate the predicted outcome to inspect them separately, as seen in Example 9.30.

Example 9.30  

# Inspect errors
cls_lasso_fit_preds_test |>
  filter(outcome != .pred_class) |>
  select(outcome, .pred_class, proficiency, text)

> # A tibble: 43 × 4
>    outcome .pred_class proficiency        text                                  
>    <fct>   <fct>       <chr>              <chr>                                 
>  1 Learner Native      Upper beginner     "Un dia, El niño estaba durmiendo cua…
>  2 Learner Native      Lower intermediate "Estoy actualmente en mi segundo año …
>  3 Learner Native      Lower intermediate "La película “Solas” contiene muchos …
>  4 Learner Native      Upper intermediate "Un día decidí llevarme a casa una ra…
>  5 Learner Native      Lower advanced     "El año pasado nos fuimos al festivál…
>  6 Learner Native      Lower advanced     "Bueno, el año pasado mi novia y yo v…
>  7 Learner Native      Lower advanced     "Me parece que en actualidad, el mund…
>  8 Learner Native      Lower advanced     "Acabo de visitar Barcelona con mi no…
>  9 Learner Native      Lower advanced     "Podria escribir un lilbro de mis pla…
> 10 Learner Native      Lower advanced     "Un día Miguel y su perro Pepe encont…
> # ℹ 33 more rows
…
Majority of misclassified learners are advanced, which could be expected as they are more similar to natives. There are some beginners that are misclassified as natives, which is interesting, and not expected. But all models are wrong, but some are useful –George Box.

Still an open question as to why some natives are classified as learners.

We can inspect the estimates for the features in the model to gain some insight into what features are most important for predicting the outcomes. The extract_fit_parsnip() function takes a trained model specification and returns a data frame with the estimated coefficients for each feature. The code is seen in Example 9.31.

Example 9.31  

# Extract estimates
cls_wf_lasso_fit |>
  extract_fit_parsnip() |>
  tidy()

> # A tibble: 1,001 × 3
>    term               estimate penalty
>    <chr>                 <dbl>   <dbl>
>  1 (Intercept)         -1.37   0.00599
>  2 tf_text_10           0      0.00599
>  3 tf_text_2            0      0.00599
>  4 tf_text_3            0      0.00599
>  5 tf_text_4            0      0.00599
>  6 tf_text_a            0.350  0.00599
>  7 tf_text_abandonado   0.0222 0.00599
>  8 tf_text_abuela       0      0.00599
>  9 tf_text_abuelos      0      0.00599
> 10 tf_text_aburrido    -0.108  0.00599
> # ℹ 991 more rows

The estimates are the log odds of the outcome. In a binary classification task, the log odds of the outcome is the log of the probability of the outcome divided by the probability of the other outcome. In our case, the reference outcome is “Learner”, so negative log-odds indicate that the feature is associated with the “Learner” outcome and positive log-odds indicate that the feature is associated with the “Native” outcome.

The estimates are in log-odds, so we need to exponentiate them to get the odds. The odds are the probability of the outcome divided by the probability of the other outcome. The probability of the outcome is the odds divided by the odds plus one. The code is seen in Example 9.32.

Example 9.32  

# Calculate probability
cls_wf_lasso_fit |>
  extract_fit_parsnip() |>
  tidy() |>
  mutate(probability = exp(estimate) / (exp(estimate) + 1))

> # A tibble: 1,001 × 4
>    term               estimate penalty probability
>    <chr>                 <dbl>   <dbl>       <dbl>
>  1 (Intercept)         -1.37   0.00599       0.202
>  2 tf_text_10           0      0.00599       0.5  
>  3 tf_text_2            0      0.00599       0.5  
>  4 tf_text_3            0      0.00599       0.5  
>  5 tf_text_4            0      0.00599       0.5  
>  6 tf_text_a            0.350  0.00599       0.587
>  7 tf_text_abandonado   0.0222 0.00599       0.506
>  8 tf_text_abuela       0      0.00599       0.5  
>  9 tf_text_abuelos      0      0.00599       0.5  
> 10 tf_text_aburrido    -0.108  0.00599       0.473
> # ℹ 991 more rows
…
# Load package
library(vip)

conflicted::conflicts_prefer(vip::vi)

# Extract important features
var_importance_tbl <-
  cls_wf_lasso_fit |>
  vi()

# Preview
var_importance_tbl

> # A tibble: 1,000 × 3
>    Variable           Importance Sign 
>    <chr>                   <dbl> <chr>
>  1 tf_text_todavia          8.67 NEG  
>  2 tf_text_eeuu             7.20 NEG  
>  3 tf_text_ésta             6.31 POS  
>  4 tf_text_sorpresa         6.31 POS  
>  5 tf_text_sienta           6.30 POS  
>  6 tf_text_arriba           6.29 NEG  
>  7 tf_text_ahí              6.06 POS  
>  8 tf_text_encuentran       5.86 NEG  
>  9 tf_text_mayoría          5.85 NEG  
> 10 tf_text_favorito         5.75 NEG  
> # ℹ 990 more rows
…
