An Introduction to Quantitative Text Analysis for Linguistics - 7 Transform datasets
…
We will send each utterance to the str_extract_all() function to match the filled pauses. This function returns a list of matches, so we will need to unnest() the list to get a vector of matches. Afterwards we will apply the count() function to summarize the number of matches for each match variation. The code is seen in Example 7.16.

Example 7.16  

# Test filled pause pattern
swda_curated_tbl |>
  mutate(
    matches = str_extract_all(
      utt_text, 
      "\\{F.*?\\}")
  ) |>
  unnest(matches) |> 
  count(matches)

> # A tibble: 120 × 2
>    matches            n
>    <chr>          <int>
>  1 "{F  Oh, }"        1
>  2 "{F  uh, }"        1
>  3 "{F \"Oh, }"       1
>  4 "{F ((Oh)) }"      1
>  5 "{F ((Oh, }"       1
>  6 "{F ((Uh }"        1
>  7 "{F ((Uh)), }"     1
>  8 "{F ((Uh, }"       1
>  9 "{F + ] Um, }"     1
> 10 "{F + ] um, }"     1
> # ℹ 110 more rows
…
